{
  "ap-south-1_yQZORQXz9": {
    "tenantName": "testTuesday",
    "config": {
      "poolId": "ap-south-1_yQZORQXz9",
      "poolName": "testTuesday",
      "clientId": "l0jgqv9j9i2pf5t2e1dmp6cvh",
      "userPool": {
        "UserPool": {
          "Id": "ap-south-1_yQZORQXz9",
          "Name": "testTuesday",
          "Policies": {
            "PasswordPolicy": {
              "MinimumLength": "8",
              "RequireUppercase": "true",
              "RequireLowercase": "true",
              "RequireNumbers": "true",
              "RequireSymbols": "true",
              "TemporaryPasswordValidityDays": "30"
            }
          },
          "LastModifiedDate": "2020-12-01T12:33:06.079Z",
          "CreationDate": "2020-12-01T12:33:06.079Z",
          "SchemaAttributes": [
            {
              "Name": "sub",
              "AttributeDataType": "String",
              "DeveloperOnlyAttribute": "false",
              "Mutable": "false",
              "Required": "true",
              "StringAttributeConstraints": {
                "MinLength": "1",
                "MaxLength": "2048"
              }
            },
            {
              "Name": "name",
              "AttributeDataType": "String",
              "DeveloperOnlyAttribute": "false",
              "Mutable": "true",
              "Required": "false",
              "StringAttributeConstraints": {
                "MinLength": "0",
                "MaxLength": "2048"
              }
            },
            {
              "Name": "given_name",
              "AttributeDataType": "String",
              "DeveloperOnlyAttribute": "false",
              "Mutable": "true",
              "Required": "false",
              "StringAttributeConstraints": {
                "MinLength": "0",
                "MaxLength": "2048"
              }
            },
            {
              "Name": "family_name",
              "AttributeDataType": "String",
              "DeveloperOnlyAttribute": "false",
              "Mutable": "true",
              "Required": "false",
              "StringAttributeConstraints": {
                "MinLength": "0",
                "MaxLength": "2048"
              }
            },
            {
              "Name": "middle_name",
              "AttributeDataType": "String",
              "DeveloperOnlyAttribute": "false",
              "Mutable": "true",
              "Required": "false",
              "StringAttributeConstraints": {
                "MinLength": "0",
                "MaxLength": "2048"
              }
            },
            {
              "Name": "nickname",
              "AttributeDataType": "String",
              "DeveloperOnlyAttribute": "false",
              "Mutable": "true",
              "Required": "false",
              "StringAttributeConstraints": {
                "MinLength": "0",
                "MaxLength": "2048"
              }
            },
            {
              "Name": "preferred_username",
              "AttributeDataType": "String",
              "DeveloperOnlyAttribute": "false",
              "Mutable": "true",
              "Required": "false",
              "StringAttributeConstraints": {
                "MinLength": "0",
                "MaxLength": "2048"
              }
            },
            {
              "Name": "profile",
              "AttributeDataType": "String",
              "DeveloperOnlyAttribute": "false",
              "Mutable": "true",
              "Required": "false",
              "StringAttributeConstraints": {
                "MinLength": "0",
                "MaxLength": "2048"
              }
            },
            {
              "Name": "picture",
              "AttributeDataType": "String",
              "DeveloperOnlyAttribute": "false",
              "Mutable": "true",
              "Required": "false",
              "StringAttributeConstraints": {
                "MinLength": "0",
                "MaxLength": "2048"
              }
            },
            {
              "Name": "website",
              "AttributeDataType": "String",
              "DeveloperOnlyAttribute": "false",
              "Mutable": "true",
              "Required": "false",
              "StringAttributeConstraints": {
                "MinLength": "0",
                "MaxLength": "2048"
              }
            },
            {
              "Name": "email",
              "AttributeDataType": "String",
              "DeveloperOnlyAttribute": "false",
              "Mutable": "true",
              "Required": "false",
              "StringAttributeConstraints": {
                "MinLength": "0",
                "MaxLength": "2048"
              }
            },
            {
              "Name": "email_verified",
              "AttributeDataType": "Boolean",
              "DeveloperOnlyAttribute": "false",
              "Mutable": "true",
              "Required": "false"
            },
            {
              "Name": "gender",
              "AttributeDataType": "String",
              "DeveloperOnlyAttribute": "false",
              "Mutable": "true",
              "Required": "false",
              "StringAttributeConstraints": {
                "MinLength": "0",
                "MaxLength": "2048"
              }
            },
            {
              "Name": "birthdate",
              "AttributeDataType": "String",
              "DeveloperOnlyAttribute": "false",
              "Mutable": "true",
              "Required": "false",
              "StringAttributeConstraints": {
                "MinLength": "10",
                "MaxLength": "10"
              }
            },
            {
              "Name": "zoneinfo",
              "AttributeDataType": "String",
              "DeveloperOnlyAttribute": "false",
              "Mutable": "true",
              "Required": "false",
              "StringAttributeConstraints": {
                "MinLength": "0",
                "MaxLength": "2048"
              }
            },
            {
              "Name": "locale",
              "AttributeDataType": "String",
              "DeveloperOnlyAttribute": "false",
              "Mutable": "true",
              "Required": "false",
              "StringAttributeConstraints": {
                "MinLength": "0",
                "MaxLength": "2048"
              }
            },
            {
              "Name": "phone_number",
              "AttributeDataType": "String",
              "DeveloperOnlyAttribute": "false",
              "Mutable": "true",
              "Required": "false",
              "StringAttributeConstraints": {
                "MinLength": "0",
                "MaxLength": "2048"
              }
            },
            {
              "Name": "phone_number_verified",
              "AttributeDataType": "Boolean",
              "DeveloperOnlyAttribute": "false",
              "Mutable": "true",
              "Required": "false"
            },
            {
              "Name": "address",
              "AttributeDataType": "String",
              "DeveloperOnlyAttribute": "false",
              "Mutable": "true",
              "Required": "false",
              "StringAttributeConstraints": {
                "MinLength": "0",
                "MaxLength": "2048"
              }
            },
            {
              "Name": "updated_at",
              "AttributeDataType": "Number",
              "DeveloperOnlyAttribute": "false",
              "Mutable": "true",
              "Required": "false",
              "NumberAttributeConstraints": {
                "MinValue": "0"
              }
            }
          ],
          "VerificationMessageTemplate": {
            "DefaultEmailOption": "CONFIRM_WITH_CODE"
          },
          "MfaConfiguration": "OFF",
          "EstimatedNumberOfUsers": "0",
          "EmailConfiguration": {
            "EmailSendingAccount": "COGNITO_DEFAULT"
          },
          "AdminCreateUserConfig": {
            "AllowAdminCreateUserOnly": "true",
            "UnusedAccountValidityDays": "30",
            "InviteMessageTemplate": {
              "SMSMessage": "Your username is {username} and temporary password is {####}.",
              "EmailMessage": "Discover more about Skandha Media Manager !!! <br>\n                    <br>\n                    <img class=\"img-fluid\" src=\"https://media-exp1.licdn.com/dms/image/C4E0BAQF6MaCpykbWtg/company-logo_200_200/0?e=2159024400&v=beta&t=TAf6_KoXe2P-nTBpGAg9qggzZEOeLsLO4MOLhVkXcMc\" alt=\"SKANDHA\"> <br>\n                    Tenant ID : testTuesday <br>\n                    Username : {username} <br>\n                    Temporary Password : {####} <br>\n                    To explore more about Skandha Media Manager verify your account:\n                    <a href=\"https://mam.skandha.tv/authenticateUser\">Verify Here!!</a><br>\n                    <br>\n                    Cheers, <br>\n                    Skandha Team<br>\n                    Website: <a href=\"https://www.skandha.in\">https://www.skandha.in</a>",
              "EmailSubject": "Welcome to Skandha Media Manager!!"
            }
          },
          "UserPoolAddOns": {
            "AdvancedSecurityMode": "AUDIT"
          },
          "Arn": "arn:aws:cognito-idp:ap-south-1:494321523184:userpool/ap-south-1_yQZORQXz9",
          "AccountRecoverySetting": {
            "RecoveryMechanisms": [
              {
                "Priority": "1",
                "Name": "admin_only"
              }
            ]
          }
        }
      },
      "userPoolClient": {
        "UserPoolClient": {
          "UserPoolId": "ap-south-1_yQZORQXz9",
          "ClientName": "testTuesday",
          "ClientId": "l0jgqv9j9i2pf5t2e1dmp6cvh",
          "LastModifiedDate": "2020-12-01T12:33:06.570Z",
          "CreationDate": "2020-12-01T12:33:06.570Z",
          "RefreshTokenValidity": "30",
          "AllowedOAuthFlowsUserPoolClient": "false"
        }
      },
      "mongodb": "testTuesday",
      "config": {
        "dynamodbTables": {
          "mcube_transcode": {
            "previewTbl": "l0jgqv9j9i2pf5t2e1dmp6cvh-preview-db",
            "basicProfileTbl": "l0jgqv9j9i2pf5t2e1dmp6cvh-basic-db",
            "standardProfileTbl": "l0jgqv9j9i2pf5t2e1dmp6cvh-standard-db",
            "premiumProfileTbl": "l0jgqv9j9i2pf5t2e1dmp6cvh-premium-db",
            "customProfileTbl": "l0jgqv9j9i2pf5t2e1dmp6cvh-custom-db"
          },
          "mcube_adv_transcode": {
            "advtranscodeDbName": "l0jgqv9j9i2pf5t2e1dmp6cvh-adv-transcode-db"
          }
        },
        "s3BucketList": {
          "inputBucket": "l0jgqv9j9i2pf5t2e1dmp6cvh-rawmedia",
          "outputBucket": "l0jgqv9j9i2pf5t2e1dmp6cvh-transcoded"
        }
      }
    }
  },
  "ap-south-1_d8zxg3ZsB": {
    "tenantName": "pr",
    "config": {
      "poolId": "ap-south-1_d8zxg3ZsB",
      "poolName": "pr",
      "clientId": "29ann17p9naphcnt3t46aglms5",
      "userPool": {
        "UserPool": {
          "Id": "ap-south-1_d8zxg3ZsB",
          "Name": "pr",
          "Policies": {
            "PasswordPolicy": {
              "MinimumLength": "8",
              "RequireUppercase": "true",
              "RequireLowercase": "true",
              "RequireNumbers": "true",
              "RequireSymbols": "true",
              "TemporaryPasswordValidityDays": "30"
            }
          },
          "LastModifiedDate": "2020-11-30T08:22:44.353Z",
          "CreationDate": "2020-11-30T08:22:44.353Z",
          "SchemaAttributes": [
            {
              "Name": "sub",
              "AttributeDataType": "String",
              "DeveloperOnlyAttribute": "false",
              "Mutable": "false",
              "Required": "true",
              "StringAttributeConstraints": {
                "MinLength": "1",
                "MaxLength": "2048"
              }
            },
            {
              "Name": "name",
              "AttributeDataType": "String",
              "DeveloperOnlyAttribute": "false",
              "Mutable": "true",
              "Required": "false",
              "StringAttributeConstraints": {
                "MinLength": "0",
                "MaxLength": "2048"
              }
            },
            {
              "Name": "given_name",
              "AttributeDataType": "String",
              "DeveloperOnlyAttribute": "false",
              "Mutable": "true",
              "Required": "false",
              "StringAttributeConstraints": {
                "MinLength": "0",
                "MaxLength": "2048"
              }
            },
            {
              "Name": "family_name",
              "AttributeDataType": "String",
              "DeveloperOnlyAttribute": "false",
              "Mutable": "true",
              "Required": "false",
              "StringAttributeConstraints": {
                "MinLength": "0",
                "MaxLength": "2048"
              }
            },
            {
              "Name": "middle_name",
              "AttributeDataType": "String",
              "DeveloperOnlyAttribute": "false",
              "Mutable": "true",
              "Required": "false",
              "StringAttributeConstraints": {
                "MinLength": "0",
                "MaxLength": "2048"
              }
            },
            {
              "Name": "nickname",
              "AttributeDataType": "String",
              "DeveloperOnlyAttribute": "false",
              "Mutable": "true",
              "Required": "false",
              "StringAttributeConstraints": {
                "MinLength": "0",
                "MaxLength": "2048"
              }
            },
            {
              "Name": "preferred_username",
              "AttributeDataType": "String",
              "DeveloperOnlyAttribute": "false",
              "Mutable": "true",
              "Required": "false",
              "StringAttributeConstraints": {
                "MinLength": "0",
                "MaxLength": "2048"
              }
            },
            {
              "Name": "profile",
              "AttributeDataType": "String",
              "DeveloperOnlyAttribute": "false",
              "Mutable": "true",
              "Required": "false",
              "StringAttributeConstraints": {
                "MinLength": "0",
                "MaxLength": "2048"
              }
            },
            {
              "Name": "picture",
              "AttributeDataType": "String",
              "DeveloperOnlyAttribute": "false",
              "Mutable": "true",
              "Required": "false",
              "StringAttributeConstraints": {
                "MinLength": "0",
                "MaxLength": "2048"
              }
            },
            {
              "Name": "website",
              "AttributeDataType": "String",
              "DeveloperOnlyAttribute": "false",
              "Mutable": "true",
              "Required": "false",
              "StringAttributeConstraints": {
                "MinLength": "0",
                "MaxLength": "2048"
              }
            },
            {
              "Name": "email",
              "AttributeDataType": "String",
              "DeveloperOnlyAttribute": "false",
              "Mutable": "true",
              "Required": "false",
              "StringAttributeConstraints": {
                "MinLength": "0",
                "MaxLength": "2048"
              }
            },
            {
              "Name": "email_verified",
              "AttributeDataType": "Boolean",
              "DeveloperOnlyAttribute": "false",
              "Mutable": "true",
              "Required": "false"
            },
            {
              "Name": "gender",
              "AttributeDataType": "String",
              "DeveloperOnlyAttribute": "false",
              "Mutable": "true",
              "Required": "false",
              "StringAttributeConstraints": {
                "MinLength": "0",
                "MaxLength": "2048"
              }
            },
            {
              "Name": "birthdate",
              "AttributeDataType": "String",
              "DeveloperOnlyAttribute": "false",
              "Mutable": "true",
              "Required": "false",
              "StringAttributeConstraints": {
                "MinLength": "10",
                "MaxLength": "10"
              }
            },
            {
              "Name": "zoneinfo",
              "AttributeDataType": "String",
              "DeveloperOnlyAttribute": "false",
              "Mutable": "true",
              "Required": "false",
              "StringAttributeConstraints": {
                "MinLength": "0",
                "MaxLength": "2048"
              }
            },
            {
              "Name": "locale",
              "AttributeDataType": "String",
              "DeveloperOnlyAttribute": "false",
              "Mutable": "true",
              "Required": "false",
              "StringAttributeConstraints": {
                "MinLength": "0",
                "MaxLength": "2048"
              }
            },
            {
              "Name": "phone_number",
              "AttributeDataType": "String",
              "DeveloperOnlyAttribute": "false",
              "Mutable": "true",
              "Required": "false",
              "StringAttributeConstraints": {
                "MinLength": "0",
                "MaxLength": "2048"
              }
            },
            {
              "Name": "phone_number_verified",
              "AttributeDataType": "Boolean",
              "DeveloperOnlyAttribute": "false",
              "Mutable": "true",
              "Required": "false"
            },
            {
              "Name": "address",
              "AttributeDataType": "String",
              "DeveloperOnlyAttribute": "false",
              "Mutable": "true",
              "Required": "false",
              "StringAttributeConstraints": {
                "MinLength": "0",
                "MaxLength": "2048"
              }
            },
            {
              "Name": "updated_at",
              "AttributeDataType": "Number",
              "DeveloperOnlyAttribute": "false",
              "Mutable": "true",
              "Required": "false",
              "NumberAttributeConstraints": {
                "MinValue": "0"
              }
            }
          ],
          "VerificationMessageTemplate": {
            "DefaultEmailOption": "CONFIRM_WITH_CODE"
          },
          "MfaConfiguration": "OFF",
          "EstimatedNumberOfUsers": "0",
          "EmailConfiguration": {
            "EmailSendingAccount": "COGNITO_DEFAULT"
          },
          "AdminCreateUserConfig": {
            "AllowAdminCreateUserOnly": "true",
            "UnusedAccountValidityDays": "30",
            "InviteMessageTemplate": {
              "SMSMessage": "Your username is {username} and temporary password is {####}.",
              "EmailMessage": "Discover more about Skandha Media Manager !!! <br>\n                    <br>\n                    <img class=\"img-fluid\" src=\"https://media-exp1.licdn.com/dms/image/C4E0BAQF6MaCpykbWtg/company-logo_200_200/0?e=2159024400&v=beta&t=TAf6_KoXe2P-nTBpGAg9qggzZEOeLsLO4MOLhVkXcMc\" alt=\"SKANDHA\"> <br>\n                    Tenant ID : pr <br>\n                    Username : {username} <br>\n                    Temporary Password : {####} <br>\n                    To explore more about Skandha Media Manager verify your account:\n                    <a href=\"https://mam.skandha.tv/authenticateUser\">Verify Here!!</a><br>\n                    <br>\n                    Cheers, <br>\n                    Skandha Team<br>\n                    Website: <a href=\"https://www.skandha.in\">https://www.skandha.in</a>",
              "EmailSubject": "Welcome to Skandha Media Manager!!"
            }
          },
          "UserPoolAddOns": {
            "AdvancedSecurityMode": "AUDIT"
          },
          "Arn": "arn:aws:cognito-idp:ap-south-1:494321523184:userpool/ap-south-1_d8zxg3ZsB",
          "AccountRecoverySetting": {
            "RecoveryMechanisms": [
              {
                "Priority": "1",
                "Name": "admin_only"
              }
            ]
          }
        }
      },
      "userPoolClient": {
        "UserPoolClient": {
          "UserPoolId": "ap-south-1_d8zxg3ZsB",
          "ClientName": "pr",
          "ClientId": "29ann17p9naphcnt3t46aglms5",
          "LastModifiedDate": "2020-11-30T08:22:44.557Z",
          "CreationDate": "2020-11-30T08:22:44.557Z",
          "RefreshTokenValidity": "30",
          "AllowedOAuthFlowsUserPoolClient": "false"
        }
      },
      "mongodb": "pr",
      "config": {
        "dynamodbTables": {
          "mcube_transcode": {
            "previewTbl": "29ann17p9naphcnt3t46aglms5-preview-db",
            "basicProfileTbl": "29ann17p9naphcnt3t46aglms5-basic-db",
            "standardProfileTbl": "29ann17p9naphcnt3t46aglms5-standard-db",
            "premiumProfileTbl": "29ann17p9naphcnt3t46aglms5-premium-db",
            "customProfileTbl": "29ann17p9naphcnt3t46aglms5-custom-db"
          },
          "mcube_adv_transcode": {
            "advtranscodeDbName": "29ann17p9naphcnt3t46aglms5-adv-transcode-db"
          }
        },
        "s3BucketList": {
          "inputBucket": "29ann17p9naphcnt3t46aglms5-rawmedia",
          "outputBucket": "29ann17p9naphcnt3t46aglms5-transcoded"
        }
      }
    }
  },
  "ap-south-1_qLtQZB3Nj": {
    "tenantName": "skn-P",
    "config": {
      "poolId": "ap-south-1_qLtQZB3Nj",
      "poolName": "skn-P",
      "clientId": "50lfu103n2olq3n0g9nuig53s1",
      "userPool": {
        "UserPool": {
          "Id": "ap-south-1_qLtQZB3Nj",
          "Name": "skn-P",
          "Policies": {
            "PasswordPolicy": {
              "MinimumLength": "8",
              "RequireUppercase": "true",
              "RequireLowercase": "true",
              "RequireNumbers": "true",
              "RequireSymbols": "true",
              "TemporaryPasswordValidityDays": "30"
            }
          },
          "LastModifiedDate": "2020-12-01T07:24:25.516Z",
          "CreationDate": "2020-12-01T07:24:25.516Z",
          "SchemaAttributes": [
            {
              "Name": "sub",
              "AttributeDataType": "String",
              "DeveloperOnlyAttribute": "false",
              "Mutable": "false",
              "Required": "true",
              "StringAttributeConstraints": {
                "MinLength": "1",
                "MaxLength": "2048"
              }
            },
            {
              "Name": "name",
              "AttributeDataType": "String",
              "DeveloperOnlyAttribute": "false",
              "Mutable": "true",
              "Required": "false",
              "StringAttributeConstraints": {
                "MinLength": "0",
                "MaxLength": "2048"
              }
            },
            {
              "Name": "given_name",
              "AttributeDataType": "String",
              "DeveloperOnlyAttribute": "false",
              "Mutable": "true",
              "Required": "false",
              "StringAttributeConstraints": {
                "MinLength": "0",
                "MaxLength": "2048"
              }
            },
            {
              "Name": "family_name",
              "AttributeDataType": "String",
              "DeveloperOnlyAttribute": "false",
              "Mutable": "true",
              "Required": "false",
              "StringAttributeConstraints": {
                "MinLength": "0",
                "MaxLength": "2048"
              }
            },
            {
              "Name": "middle_name",
              "AttributeDataType": "String",
              "DeveloperOnlyAttribute": "false",
              "Mutable": "true",
              "Required": "false",
              "StringAttributeConstraints": {
                "MinLength": "0",
                "MaxLength": "2048"
              }
            },
            {
              "Name": "nickname",
              "AttributeDataType": "String",
              "DeveloperOnlyAttribute": "false",
              "Mutable": "true",
              "Required": "false",
              "StringAttributeConstraints": {
                "MinLength": "0",
                "MaxLength": "2048"
              }
            },
            {
              "Name": "preferred_username",
              "AttributeDataType": "String",
              "DeveloperOnlyAttribute": "false",
              "Mutable": "true",
              "Required": "false",
              "StringAttributeConstraints": {
                "MinLength": "0",
                "MaxLength": "2048"
              }
            },
            {
              "Name": "profile",
              "AttributeDataType": "String",
              "DeveloperOnlyAttribute": "false",
              "Mutable": "true",
              "Required": "false",
              "StringAttributeConstraints": {
                "MinLength": "0",
                "MaxLength": "2048"
              }
            },
            {
              "Name": "picture",
              "AttributeDataType": "String",
              "DeveloperOnlyAttribute": "false",
              "Mutable": "true",
              "Required": "false",
              "StringAttributeConstraints": {
                "MinLength": "0",
                "MaxLength": "2048"
              }
            },
            {
              "Name": "website",
              "AttributeDataType": "String",
              "DeveloperOnlyAttribute": "false",
              "Mutable": "true",
              "Required": "false",
              "StringAttributeConstraints": {
                "MinLength": "0",
                "MaxLength": "2048"
              }
            },
            {
              "Name": "email",
              "AttributeDataType": "String",
              "DeveloperOnlyAttribute": "false",
              "Mutable": "true",
              "Required": "false",
              "StringAttributeConstraints": {
                "MinLength": "0",
                "MaxLength": "2048"
              }
            },
            {
              "Name": "email_verified",
              "AttributeDataType": "Boolean",
              "DeveloperOnlyAttribute": "false",
              "Mutable": "true",
              "Required": "false"
            },
            {
              "Name": "gender",
              "AttributeDataType": "String",
              "DeveloperOnlyAttribute": "false",
              "Mutable": "true",
              "Required": "false",
              "StringAttributeConstraints": {
                "MinLength": "0",
                "MaxLength": "2048"
              }
            },
            {
              "Name": "birthdate",
              "AttributeDataType": "String",
              "DeveloperOnlyAttribute": "false",
              "Mutable": "true",
              "Required": "false",
              "StringAttributeConstraints": {
                "MinLength": "10",
                "MaxLength": "10"
              }
            },
            {
              "Name": "zoneinfo",
              "AttributeDataType": "String",
              "DeveloperOnlyAttribute": "false",
              "Mutable": "true",
              "Required": "false",
              "StringAttributeConstraints": {
                "MinLength": "0",
                "MaxLength": "2048"
              }
            },
            {
              "Name": "locale",
              "AttributeDataType": "String",
              "DeveloperOnlyAttribute": "false",
              "Mutable": "true",
              "Required": "false",
              "StringAttributeConstraints": {
                "MinLength": "0",
                "MaxLength": "2048"
              }
            },
            {
              "Name": "phone_number",
              "AttributeDataType": "String",
              "DeveloperOnlyAttribute": "false",
              "Mutable": "true",
              "Required": "false",
              "StringAttributeConstraints": {
                "MinLength": "0",
                "MaxLength": "2048"
              }
            },
            {
              "Name": "phone_number_verified",
              "AttributeDataType": "Boolean",
              "DeveloperOnlyAttribute": "false",
              "Mutable": "true",
              "Required": "false"
            },
            {
              "Name": "address",
              "AttributeDataType": "String",
              "DeveloperOnlyAttribute": "false",
              "Mutable": "true",
              "Required": "false",
              "StringAttributeConstraints": {
                "MinLength": "0",
                "MaxLength": "2048"
              }
            },
            {
              "Name": "updated_at",
              "AttributeDataType": "Number",
              "DeveloperOnlyAttribute": "false",
              "Mutable": "true",
              "Required": "false",
              "NumberAttributeConstraints": {
                "MinValue": "0"
              }
            }
          ],
          "VerificationMessageTemplate": {
            "DefaultEmailOption": "CONFIRM_WITH_CODE"
          },
          "MfaConfiguration": "OFF",
          "EstimatedNumberOfUsers": "0",
          "EmailConfiguration": {
            "EmailSendingAccount": "COGNITO_DEFAULT"
          },
          "AdminCreateUserConfig": {
            "AllowAdminCreateUserOnly": "true",
            "UnusedAccountValidityDays": "30",
            "InviteMessageTemplate": {
              "SMSMessage": "Your username is {username} and temporary password is {####}.",
              "EmailMessage": "Discover more about Skandha Media Manager !!! <br>\n                    <br>\n                    <img class=\"img-fluid\" src=\"https://media-exp1.licdn.com/dms/image/C4E0BAQF6MaCpykbWtg/company-logo_200_200/0?e=2159024400&v=beta&t=TAf6_KoXe2P-nTBpGAg9qggzZEOeLsLO4MOLhVkXcMc\" alt=\"SKANDHA\"> <br>\n                    Tenant ID : skn-P <br>\n                    Username : {username} <br>\n                    Temporary Password : {####} <br>\n                    To explore more about Skandha Media Manager verify your account:\n                    <a href=\"https://mam.skandha.tv/authenticateUser\">Verify Here!!</a><br>\n                    <br>\n                    Cheers, <br>\n                    Skandha Team<br>\n                    Website: <a href=\"https://www.skandha.in\">https://www.skandha.in</a>",
              "EmailSubject": "Welcome to Skandha Media Manager!!"
            }
          },
          "UserPoolAddOns": {
            "AdvancedSecurityMode": "AUDIT"
          },
          "Arn": "arn:aws:cognito-idp:ap-south-1:494321523184:userpool/ap-south-1_qLtQZB3Nj",
          "AccountRecoverySetting": {
            "RecoveryMechanisms": [
              {
                "Priority": "1",
                "Name": "admin_only"
              }
            ]
          }
        }
      },
      "userPoolClient": {
        "UserPoolClient": {
          "UserPoolId": "ap-south-1_qLtQZB3Nj",
          "ClientName": "skn-P",
          "ClientId": "50lfu103n2olq3n0g9nuig53s1",
          "LastModifiedDate": "2020-12-01T07:24:25.715Z",
          "CreationDate": "2020-12-01T07:24:25.715Z",
          "RefreshTokenValidity": "30",
          "AllowedOAuthFlowsUserPoolClient": "false"
        }
      },
      "mongodb": "skn-P",
      "config": {
        "dynamodbTables": {
          "mcube_transcode": {
            "previewTbl": "50lfu103n2olq3n0g9nuig53s1-preview-db",
            "basicProfileTbl": "50lfu103n2olq3n0g9nuig53s1-basic-db",
            "standardProfileTbl": "50lfu103n2olq3n0g9nuig53s1-standard-db",
            "premiumProfileTbl": "50lfu103n2olq3n0g9nuig53s1-premium-db",
            "customProfileTbl": "50lfu103n2olq3n0g9nuig53s1-custom-db"
          },
          "mcube_adv_transcode": {
            "advtranscodeDbName": "50lfu103n2olq3n0g9nuig53s1-adv-transcode-db"
          }
        },
        "s3BucketList": {
          "inputBucket": "50lfu103n2olq3n0g9nuig53s1-rawmedia",
          "outputBucket": "50lfu103n2olq3n0g9nuig53s1-transcoded"
        }
      }
    }
  },
  "ap-south-1_fRAcMqVm7": {
    "tenantName": "Zero",
    "config": {
      "poolId": "ap-south-1_fRAcMqVm7",
      "poolName": "Zero",
      "clientId": "1vv2rmhq8h03tcekctneftc5fi",
      "userPool": {
        "UserPool": {
          "Id": "ap-south-1_fRAcMqVm7",
          "Name": "Zero",
          "Policies": {
            "PasswordPolicy": {
              "MinimumLength": "8",
              "RequireUppercase": "true",
              "RequireLowercase": "true",
              "RequireNumbers": "true",
              "RequireSymbols": "true",
              "TemporaryPasswordValidityDays": "30"
            }
          },
          "LastModifiedDate": "2020-12-01T14:00:05.966Z",
          "CreationDate": "2020-12-01T14:00:05.966Z",
          "SchemaAttributes": [
            {
              "Name": "sub",
              "AttributeDataType": "String",
              "DeveloperOnlyAttribute": "false",
              "Mutable": "false",
              "Required": "true",
              "StringAttributeConstraints": {
                "MinLength": "1",
                "MaxLength": "2048"
              }
            },
            {
              "Name": "name",
              "AttributeDataType": "String",
              "DeveloperOnlyAttribute": "false",
              "Mutable": "true",
              "Required": "false",
              "StringAttributeConstraints": {
                "MinLength": "0",
                "MaxLength": "2048"
              }
            },
            {
              "Name": "given_name",
              "AttributeDataType": "String",
              "DeveloperOnlyAttribute": "false",
              "Mutable": "true",
              "Required": "false",
              "StringAttributeConstraints": {
                "MinLength": "0",
                "MaxLength": "2048"
              }
            },
            {
              "Name": "family_name",
              "AttributeDataType": "String",
              "DeveloperOnlyAttribute": "false",
              "Mutable": "true",
              "Required": "false",
              "StringAttributeConstraints": {
                "MinLength": "0",
                "MaxLength": "2048"
              }
            },
            {
              "Name": "middle_name",
              "AttributeDataType": "String",
              "DeveloperOnlyAttribute": "false",
              "Mutable": "true",
              "Required": "false",
              "StringAttributeConstraints": {
                "MinLength": "0",
                "MaxLength": "2048"
              }
            },
            {
              "Name": "nickname",
              "AttributeDataType": "String",
              "DeveloperOnlyAttribute": "false",
              "Mutable": "true",
              "Required": "false",
              "StringAttributeConstraints": {
                "MinLength": "0",
                "MaxLength": "2048"
              }
            },
            {
              "Name": "preferred_username",
              "AttributeDataType": "String",
              "DeveloperOnlyAttribute": "false",
              "Mutable": "true",
              "Required": "false",
              "StringAttributeConstraints": {
                "MinLength": "0",
                "MaxLength": "2048"
              }
            },
            {
              "Name": "profile",
              "AttributeDataType": "String",
              "DeveloperOnlyAttribute": "false",
              "Mutable": "true",
              "Required": "false",
              "StringAttributeConstraints": {
                "MinLength": "0",
                "MaxLength": "2048"
              }
            },
            {
              "Name": "picture",
              "AttributeDataType": "String",
              "DeveloperOnlyAttribute": "false",
              "Mutable": "true",
              "Required": "false",
              "StringAttributeConstraints": {
                "MinLength": "0",
                "MaxLength": "2048"
              }
            },
            {
              "Name": "website",
              "AttributeDataType": "String",
              "DeveloperOnlyAttribute": "false",
              "Mutable": "true",
              "Required": "false",
              "StringAttributeConstraints": {
                "MinLength": "0",
                "MaxLength": "2048"
              }
            },
            {
              "Name": "email",
              "AttributeDataType": "String",
              "DeveloperOnlyAttribute": "false",
              "Mutable": "true",
              "Required": "false",
              "StringAttributeConstraints": {
                "MinLength": "0",
                "MaxLength": "2048"
              }
            },
            {
              "Name": "email_verified",
              "AttributeDataType": "Boolean",
              "DeveloperOnlyAttribute": "false",
              "Mutable": "true",
              "Required": "false"
            },
            {
              "Name": "gender",
              "AttributeDataType": "String",
              "DeveloperOnlyAttribute": "false",
              "Mutable": "true",
              "Required": "false",
              "StringAttributeConstraints": {
                "MinLength": "0",
                "MaxLength": "2048"
              }
            },
            {
              "Name": "birthdate",
              "AttributeDataType": "String",
              "DeveloperOnlyAttribute": "false",
              "Mutable": "true",
              "Required": "false",
              "StringAttributeConstraints": {
                "MinLength": "10",
                "MaxLength": "10"
              }
            },
            {
              "Name": "zoneinfo",
              "AttributeDataType": "String",
              "DeveloperOnlyAttribute": "false",
              "Mutable": "true",
              "Required": "false",
              "StringAttributeConstraints": {
                "MinLength": "0",
                "MaxLength": "2048"
              }
            },
            {
              "Name": "locale",
              "AttributeDataType": "String",
              "DeveloperOnlyAttribute": "false",
              "Mutable": "true",
              "Required": "false",
              "StringAttributeConstraints": {
                "MinLength": "0",
                "MaxLength": "2048"
              }
            },
            {
              "Name": "phone_number",
              "AttributeDataType": "String",
              "DeveloperOnlyAttribute": "false",
              "Mutable": "true",
              "Required": "false",
              "StringAttributeConstraints": {
                "MinLength": "0",
                "MaxLength": "2048"
              }
            },
            {
              "Name": "phone_number_verified",
              "AttributeDataType": "Boolean",
              "DeveloperOnlyAttribute": "false",
              "Mutable": "true",
              "Required": "false"
            },
            {
              "Name": "address",
              "AttributeDataType": "String",
              "DeveloperOnlyAttribute": "false",
              "Mutable": "true",
              "Required": "false",
              "StringAttributeConstraints": {
                "MinLength": "0",
                "MaxLength": "2048"
              }
            },
            {
              "Name": "updated_at",
              "AttributeDataType": "Number",
              "DeveloperOnlyAttribute": "false",
              "Mutable": "true",
              "Required": "false",
              "NumberAttributeConstraints": {
                "MinValue": "0"
              }
            }
          ],
          "VerificationMessageTemplate": {
            "DefaultEmailOption": "CONFIRM_WITH_CODE"
          },
          "MfaConfiguration": "OFF",
          "EstimatedNumberOfUsers": "0",
          "EmailConfiguration": {
            "EmailSendingAccount": "COGNITO_DEFAULT"
          },
          "AdminCreateUserConfig": {
            "AllowAdminCreateUserOnly": "true",
            "UnusedAccountValidityDays": "30",
            "InviteMessageTemplate": {
              "SMSMessage": "Your username is {username} and temporary password is {####}.",
              "EmailMessage": "Discover more about Skandha Media Manager !!! <br>\n                    <br>\n                    <img class=\"img-fluid\" src=\"https://media-exp1.licdn.com/dms/image/C4E0BAQF6MaCpykbWtg/company-logo_200_200/0?e=2159024400&v=beta&t=TAf6_KoXe2P-nTBpGAg9qggzZEOeLsLO4MOLhVkXcMc\" alt=\"SKANDHA\"> <br>\n                    Tenant ID : Zero <br>\n                    Username : {username} <br>\n                    Temporary Password : {####} <br>\n                    To explore more about Skandha Media Manager verify your account:\n                    <a href=\"https://mam.skandha.tv/authenticateUser\">Verify Here!!</a><br>\n                    <br>\n                    Cheers, <br>\n                    Skandha Team<br>\n                    Website: <a href=\"https://www.skandha.in\">https://www.skandha.in</a>",
              "EmailSubject": "Welcome to Skandha Media Manager!!"
            }
          },
          "UserPoolAddOns": {
            "AdvancedSecurityMode": "AUDIT"
          },
          "Arn": "arn:aws:cognito-idp:ap-south-1:494321523184:userpool/ap-south-1_fRAcMqVm7",
          "AccountRecoverySetting": {
            "RecoveryMechanisms": [
              {
                "Priority": "1",
                "Name": "admin_only"
              }
            ]
          }
        }
      },
      "userPoolClient": {
        "UserPoolClient": {
          "UserPoolId": "ap-south-1_fRAcMqVm7",
          "ClientName": "Zero",
          "ClientId": "1vv2rmhq8h03tcekctneftc5fi",
          "LastModifiedDate": "2020-12-01T14:00:06.205Z",
          "CreationDate": "2020-12-01T14:00:06.205Z",
          "RefreshTokenValidity": "30",
          "AllowedOAuthFlowsUserPoolClient": "false"
        }
      },
      "mongodb": "Zero",
      "config": {
        "dynamodbTables": {
          "mcube_transcode": {
            "previewTbl": "1vv2rmhq8h03tcekctneftc5fi-preview-db",
            "basicProfileTbl": "1vv2rmhq8h03tcekctneftc5fi-basic-db",
            "standardProfileTbl": "1vv2rmhq8h03tcekctneftc5fi-standard-db",
            "premiumProfileTbl": "1vv2rmhq8h03tcekctneftc5fi-premium-db",
            "customProfileTbl": "1vv2rmhq8h03tcekctneftc5fi-custom-db"
          },
          "mcube_adv_transcode": {
            "advtranscodeDbName": "1vv2rmhq8h03tcekctneftc5fi-adv-transcode-db"
          }
        },
        "s3BucketList": {
          "inputBucket": "1vv2rmhq8h03tcekctneftc5fi-rawmedia",
          "outputBucket": "1vv2rmhq8h03tcekctneftc5fi-transcoded"
        }
      }
    }
  }, 
"ap-south-1_yQZORQXz9": {
  "tenantName": "testTuesday",
  "config": {
    "poolId": "ap-south-1_yQZORQXz9",
    "poolName": "testTuesday",
    "clientId": "l0jgqv9j9i2pf5t2e1dmp6cvh",
    "userPool": {
      "UserPool": {
        "Id": "ap-south-1_yQZORQXz9",
        "Name": "testTuesday",
        "Policies": {
          "PasswordPolicy": {
            "MinimumLength": "8",
            "RequireUppercase": "true",
            "RequireLowercase": "true",
            "RequireNumbers": "true",
            "RequireSymbols": "true",
            "TemporaryPasswordValidityDays": "30"
          }
        },
        "LastModifiedDate": "2020-12-01T12:33:06.079Z",
        "CreationDate": "2020-12-01T12:33:06.079Z",
        "SchemaAttributes": [
          {
            "Name": "sub",
            "AttributeDataType": "String",
            "DeveloperOnlyAttribute": "false",
            "Mutable": "false",
            "Required": "true",
            "StringAttributeConstraints": {
              "MinLength": "1",
              "MaxLength": "2048"
            }
          },
          {
            "Name": "name",
            "AttributeDataType": "String",
            "DeveloperOnlyAttribute": "false",
            "Mutable": "true",
            "Required": "false",
            "StringAttributeConstraints": {
              "MinLength": "0",
              "MaxLength": "2048"
            }
          },
          {
            "Name": "given_name",
            "AttributeDataType": "String",
            "DeveloperOnlyAttribute": "false",
            "Mutable": "true",
            "Required": "false",
            "StringAttributeConstraints": {
              "MinLength": "0",
              "MaxLength": "2048"
            }
          },
          {
            "Name": "family_name",
            "AttributeDataType": "String",
            "DeveloperOnlyAttribute": "false",
            "Mutable": "true",
            "Required": "false",
            "StringAttributeConstraints": {
              "MinLength": "0",
              "MaxLength": "2048"
            }
          },
          {
            "Name": "middle_name",
            "AttributeDataType": "String",
            "DeveloperOnlyAttribute": "false",
            "Mutable": "true",
            "Required": "false",
            "StringAttributeConstraints": {
              "MinLength": "0",
              "MaxLength": "2048"
            }
          },
          {
            "Name": "nickname",
            "AttributeDataType": "String",
            "DeveloperOnlyAttribute": "false",
            "Mutable": "true",
            "Required": "false",
            "StringAttributeConstraints": {
              "MinLength": "0",
              "MaxLength": "2048"
            }
          },
          {
            "Name": "preferred_username",
            "AttributeDataType": "String",
            "DeveloperOnlyAttribute": "false",
            "Mutable": "true",
            "Required": "false",
            "StringAttributeConstraints": {
              "MinLength": "0",
              "MaxLength": "2048"
            }
          },
          {
            "Name": "profile",
            "AttributeDataType": "String",
            "DeveloperOnlyAttribute": "false",
            "Mutable": "true",
            "Required": "false",
            "StringAttributeConstraints": {
              "MinLength": "0",
              "MaxLength": "2048"
            }
          },
          {
            "Name": "picture",
            "AttributeDataType": "String",
            "DeveloperOnlyAttribute": "false",
            "Mutable": "true",
            "Required": "false",
            "StringAttributeConstraints": {
              "MinLength": "0",
              "MaxLength": "2048"
            }
          },
          {
            "Name": "website",
            "AttributeDataType": "String",
            "DeveloperOnlyAttribute": "false",
            "Mutable": "true",
            "Required": "false",
            "StringAttributeConstraints": {
              "MinLength": "0",
              "MaxLength": "2048"
            }
          },
          {
            "Name": "email",
            "AttributeDataType": "String",
            "DeveloperOnlyAttribute": "false",
            "Mutable": "true",
            "Required": "false",
            "StringAttributeConstraints": {
              "MinLength": "0",
              "MaxLength": "2048"
            }
          },
          {
            "Name": "email_verified",
            "AttributeDataType": "Boolean",
            "DeveloperOnlyAttribute": "false",
            "Mutable": "true",
            "Required": "false"
          },
          {
            "Name": "gender",
            "AttributeDataType": "String",
            "DeveloperOnlyAttribute": "false",
            "Mutable": "true",
            "Required": "false",
            "StringAttributeConstraints": {
              "MinLength": "0",
              "MaxLength": "2048"
            }
          },
          {
            "Name": "birthdate",
            "AttributeDataType": "String",
            "DeveloperOnlyAttribute": "false",
            "Mutable": "true",
            "Required": "false",
            "StringAttributeConstraints": {
              "MinLength": "10",
              "MaxLength": "10"
            }
          },
          {
            "Name": "zoneinfo",
            "AttributeDataType": "String",
            "DeveloperOnlyAttribute": "false",
            "Mutable": "true",
            "Required": "false",
            "StringAttributeConstraints": {
              "MinLength": "0",
              "MaxLength": "2048"
            }
          },
          {
            "Name": "locale",
            "AttributeDataType": "String",
            "DeveloperOnlyAttribute": "false",
            "Mutable": "true",
            "Required": "false",
            "StringAttributeConstraints": {
              "MinLength": "0",
              "MaxLength": "2048"
            }
          },
          {
            "Name": "phone_number",
            "AttributeDataType": "String",
            "DeveloperOnlyAttribute": "false",
            "Mutable": "true",
            "Required": "false",
            "StringAttributeConstraints": {
              "MinLength": "0",
              "MaxLength": "2048"
            }
          },
          {
            "Name": "phone_number_verified",
            "AttributeDataType": "Boolean",
            "DeveloperOnlyAttribute": "false",
            "Mutable": "true",
            "Required": "false"
          },
          {
            "Name": "address",
            "AttributeDataType": "String",
            "DeveloperOnlyAttribute": "false",
            "Mutable": "true",
            "Required": "false",
            "StringAttributeConstraints": {
              "MinLength": "0",
              "MaxLength": "2048"
            }
          },
          {
            "Name": "updated_at",
            "AttributeDataType": "Number",
            "DeveloperOnlyAttribute": "false",
            "Mutable": "true",
            "Required": "false",
            "NumberAttributeConstraints": {
              "MinValue": "0"
            }
          }
        ],
        "VerificationMessageTemplate": {
          "DefaultEmailOption": "CONFIRM_WITH_CODE"
        },
        "MfaConfiguration": "OFF",
        "EstimatedNumberOfUsers": "0",
        "EmailConfiguration": {
          "EmailSendingAccount": "COGNITO_DEFAULT"
        },
        "AdminCreateUserConfig": {
          "AllowAdminCreateUserOnly": "true",
          "UnusedAccountValidityDays": "30",
          "InviteMessageTemplate": {
            "SMSMessage": "Your username is {username} and temporary password is {####}.",
            "EmailMessage": "Discover more about Skandha Media Manager !!! <br>\n                    <br>\n                    <img class=\"img-fluid\" src=\"https://media-exp1.licdn.com/dms/image/C4E0BAQF6MaCpykbWtg/company-logo_200_200/0?e=2159024400&v=beta&t=TAf6_KoXe2P-nTBpGAg9qggzZEOeLsLO4MOLhVkXcMc\" alt=\"SKANDHA\"> <br>\n                    Tenant ID : testTuesday <br>\n                    Username : {username} <br>\n                    Temporary Password : {####} <br>\n                    To explore more about Skandha Media Manager verify your account:\n                    <a href=\"https://mam.skandha.tv/authenticateUser\">Verify Here!!</a><br>\n                    <br>\n                    Cheers, <br>\n                    Skandha Team<br>\n                    Website: <a href=\"https://www.skandha.in\">https://www.skandha.in</a>",
            "EmailSubject": "Welcome to Skandha Media Manager!!"
          }
        },
        "UserPoolAddOns": {
          "AdvancedSecurityMode": "AUDIT"
        },
        "Arn": "arn:aws:cognito-idp:ap-south-1:494321523184:userpool/ap-south-1_yQZORQXz9",
        "AccountRecoverySetting": {
          "RecoveryMechanisms": [
            {
              "Priority": "1",
              "Name": "admin_only"
            }
          ]
        }
      }
    },
    "userPoolClient": {
      "UserPoolClient": {
        "UserPoolId": "ap-south-1_yQZORQXz9",
        "ClientName": "testTuesday",
        "ClientId": "l0jgqv9j9i2pf5t2e1dmp6cvh",
        "LastModifiedDate": "2020-12-01T12:33:06.570Z",
        "CreationDate": "2020-12-01T12:33:06.570Z",
        "RefreshTokenValidity": "30",
        "AllowedOAuthFlowsUserPoolClient": "false"
      }
    },
    "mongodb": "testTuesday",
    "config": {
      "dynamodbTables": {
        "mcube_transcode": {
          "previewTbl": "l0jgqv9j9i2pf5t2e1dmp6cvh-preview-db",
          "basicProfileTbl": "l0jgqv9j9i2pf5t2e1dmp6cvh-basic-db",
          "standardProfileTbl": "l0jgqv9j9i2pf5t2e1dmp6cvh-standard-db",
          "premiumProfileTbl": "l0jgqv9j9i2pf5t2e1dmp6cvh-premium-db",
          "customProfileTbl": "l0jgqv9j9i2pf5t2e1dmp6cvh-custom-db"
        },
        "mcube_adv_transcode": {
          "advtranscodeDbName": "l0jgqv9j9i2pf5t2e1dmp6cvh-adv-transcode-db"
        }
      },
      "s3BucketList": {
        "inputBucket": "l0jgqv9j9i2pf5t2e1dmp6cvh-rawmedia",
        "outputBucket": "l0jgqv9j9i2pf5t2e1dmp6cvh-transcoded"
      }
    }
  }
}
}

